Quantitative Analysis 2 - Review of Statistical Concepts
…
Using Linear Regression to Describe Heights

mod_ht <- lm(ht ~ sex, data = data_ht)

# A tibble: 10,000 × 2
      ht sex  
   <dbl> <chr>
 1  70.7 M    
 2  67.9 M    
 3  73.6 M    
 4  68.4 M    
 5  67.0 M    
 6  71.2 M    
 7  67.5 M    
 8  68.8 M    
 9  63.9 M    
10  69.9 M    
# ℹ 9,990 more rows
…
Model Prediction: \(3.80 + -.99*.341 + .92*-1.14 = 2.41\)

Model Error: Observed - Predicted

Calculating Model Predictions and Errors

data_jdr |> 
  dplyr::select(job_demand, job_res, eng) |>
  dplyr::mutate(
    prediction = predict(mod_engage),
    error = mod_engage$residuals
  )

# A tibble: 2,000 × 5
   job_demand job_res   eng prediction  error
        <dbl>   <dbl> <dbl>      <dbl>  <dbl>
 1      0.341 -1.14    1.30       2.42 -1.12 
 2     -0.703 -1.02    3.39       3.56 -0.172
 3     -0.380 -0.575   1.38       3.65 -2.28 
 4     -0.746 -0.0909  6.44       4.46  1.98 
 5     -0.898 -0.0192  4.52       4.67 -0.156
 6     -0.335 -1.51    3.20       2.75  0.452
 7     -0.501 -0.585   7.61       3.76  3.85 
 8     -0.175 -1.76    1.13       2.36 -1.23 
 9      1.81   1.39    4.99       3.30  1.70 
10     -0.230  0.545   7.03       4.53  2.49 
# ℹ 1,990 more rows
…
