Quantitative Analysis 2 - Introduction to Logistic Regression
…
A Quick Reminder on Indicator Coding

Indicator coding takes a categorical variable with K categories (2 in our case) and transforms them into K - 1 indicator variables (0 or 1).

An indicator variable for each category except the reference category.

An indicator variable takes on a value of 1 if the observation is a member of the category else it takes on 0.

The reference category is identified by taking on 0s across all of the indicator variables.

Indicator Coding for Customer Identification

In our data, why do we only need one indicator variable and which category is the reference group?

# A tibble: 2,500 × 2
   x_cust_id_indicator x_cust_id
                 <dbl> <chr>    
 1                   0 No       
 2                   0 No       
 3                   1 Yes      
 4                   1 Yes      
 5                   1 Yes      
 6                   1 Yes      
 7                   1 Yes      
 8                   0 No       
 9                   1 Yes      
10                   0 No       
# ℹ 2,490 more rows
…
