Quantitative Analysis 2 - Interactions & Model Building in Logistic Regression
…
Did they vote in the previous election [Outcome]

Age

Gender

Are they a lifetime voter (voted in multiple previous elections)

Proximity to voting location

Look at Our Data

First, let’s look at our dataset:

# A tibble: 5,000 × 7
   vote  gender   age age_std life_vote vote_dist           vote_dist_num
   <chr> <chr>  <int>   <dbl> <chr>     <chr>                       <int>
 1 Y     M         71  1.79   N         Walkable - Moderate             1
 2 Y     M         46 -0.0243 Y         Drive - Moderate                2
 3 Y     M         48  0.120  Y         Walkable - Moderate             1
 4 N     M         62  1.13   Y         Walkable - Moderate             1
 5 Y     M         51  0.338  Y         Drive - Moderate                2
 6 N     M         18 -2.05   Y         Drive - Moderate                2
 7 N     F         35 -0.821  Y         Drive - Far                     3
 8 N     F         59  0.917  N         Drive - Moderate                2
 9 N     F         32 -1.04   N         Drive - Moderate                2
10 N     F         26 -1.47   Y         Drive - Moderate                2
# ℹ 4,990 more rows
…
If your quantitative variables does not have a meaningful scale, then divide it by its standard deviation.

Create a cross-product variable by multiplying the values of your focal predictor and moderator variable.

Building a Cross-Product Variable in Our Voting Data

data_vote <- 
  data_vote |> 
  dplyr::mutate(
    life_vote_num = dplyr::if_else(life_vote == "Y", 1, 0),
    cp_pd_lv = vote_dist_num * life_vote_num
  )

# A tibble: 5,000 × 8
    vote gender   age life_vote vote_dist   vote_dist_num life_vote_num cp_pd_lv
   <dbl> <chr>  <int> <chr>     <chr>               <int>         <dbl>    <dbl>
 1     1 M         71 N         Walkable -…             1             0        0
 2     1 M         46 Y         Drive - Mo…             2             1        2
 3     1 M         48 Y         Walkable -…             1             1        1
 4     0 M         62 Y         Walkable -…             1             1        1
 5     1 M         51 Y         Drive - Mo…             2             1        2
 6     0 M         18 Y         Drive - Mo…             2             1        2
 7     0 F         35 Y         Drive - Far             3             1        3
 8     0 F         59 N         Drive - Mo…             2             0        0
 9     0 F         32 N         Drive - Mo…             2             0        0
10     0 F         26 Y         Drive - Mo…             2             1        2
# ℹ 4,990 more rows
…
