Quantitative Analysis 2 - Clustered Data and the LMER Model
…
What are Clustered Data Structures?

Clustered data structures occur when your data is nested within in a higher-level structure (a cluster):

Employees nested within a team (team = cluster)

Students nested within a classroom (classroom = cluster)

Repeated measurements on an individual (individual = cluster)

Our Data Example

You work for an organization that is interested in understanding how the inclusive behaviors of a team’s leader impacts their team’s perceptions of psychological safety—the shared belief that it is OK to take risks, speak up, or admit mistakes without fear of negative consequences.

# A tibble: 800 × 3
   team_id x_inc_lead y_psych_safe
     <int>      <dbl>        <dbl>
 1       1       6.08         8.37
 2       1       6.67         7.15
 3       1       7.19         7.83
 4       1       5.34         7.39
 5       1       5.77         7.2 
 6       1       6.63         8.01
 7       1       6.96         7.09
 8       1       7.26         7.37
 9       1       5.74         7.07
10       1       5.42         7.75
# ℹ 790 more rows
…
