Quantitative Analysis 2 - Advanced Uses of LMER Models
…
For each group, subtract the group mean from the predictor variable.

Save both the group mean centered predictor variable and the group mean.

Learning How to Group Mean Center

data_center <- 
  data_center |>
  dplyr::group_by(group) |>
  dplyr::mutate(
    x_group_mean = mean(x),
    x_grp_cent = x - x_group_mean
  )

# A tibble: 25 × 5
# Groups:   group [5]
        y      x group x_group_mean x_grp_cent
    <dbl>  <dbl> <int>        <dbl>      <dbl>
 1  1.16   0.932     1        0.781     0.151 
 2 -1.02   0.671     1        0.781    -0.111 
 3  1.55   0.385     1        0.781    -0.396 
 4  2.56   2.16      1        0.781     1.37  
 5  1.06  -0.237     1        0.781    -1.02  
 6  0.372  6.87      2        6.01      0.861 
 7  0.283  5.57      2        6.01     -0.447 
 8  1.90   6.54      2        6.01      0.529 
 9 -0.639  6.10      2        6.01      0.0880
10 -1.33   4.98      2        6.01     -1.03  
# ℹ 15 more rows
…
If you are interested in questions about change like how does someone’s health change as they age or what happens to population over time, then you will likely have a data structure where you have repeated measurements nested within a level 2 unit:

Change in job satisfaction

Change in performance

Change in subjective well being

Really anytime you are interested in how something changes across time, you can generally model it with an LMER model.

Our Growth Model Example

We are interested in how weekly exercise habits impact the health of individuals in a study who are all around the age of 50.

# A tibble: 3,200 × 7
   person  time time_0 x_sex x_exr x_exr_gpm y_health
    <int> <int>  <dbl> <dbl> <dbl>     <dbl>    <dbl>
 1      1     1      0     0  2.83      1.99     4.76
 2      1     2      1     0  0.8       1.99     4.71
 3      1     3      2     0  2.47      1.99     5.49
 4      1     4      3     0  1.94      1.99     5.37
 5      1     5      4     0  2.39      1.99     5.57
 6      1     6      5     0  3.65      1.99     5.89
 7      1     7      6     0  2.57      1.99     5.85
 8      1     8      7     0  1.9       1.99     5.63
 9      1     9      8     0  3.3       1.99     6.04
10      1    10      9     0  0.7       1.99     6.15
# ℹ 3,190 more rows
…
